^D:\ZDU.EDU\АЛГОРИТМИ ТА СТРУКТУРИ ДАНИХ\LAB_5\ATSD_LAB_5\ATSD_LAB_5\MAIN.CPP
D:\ZDU.EDU\Алгоритми та структури даних\LAB_5\ATSD_LAB_5\ATSD_LAB_5\X64\DEBUG\VC143.PDB
D:\ZDU.EDU\Алгоритми та структури даних\LAB_5\ATSD_LAB_5\ATSD_LAB_5\X64\DEBUG\VC143.IDB
D:\ZDU.EDU\Алгоритми та структури даних\LAB_5\ATSD_LAB_5\ATSD_LAB_5\X64\DEBUG\MAIN.OBJ
